Tour de France - Animated bar plot
…
# Check nationality are coherent with no difference due to, eg, white spaces
unique(tdf_winners_3$nationality)

##  [1] "France"        "Luxembourg"    "Belgium"       "Italy"        
##  [5] "Switzerland"   "Spain"         "Netherlands"   "United States"
##  [9] "Ireland"       "Denmark"       "Germany"       "Australia"    
## [13] "Great Britain" "Colombia"

# Inspect no. of countries per edition: are there 14 countries for each edition?
tdf_winners_3 %>% group_by(edition) %>% summarise(n()) # yes

## # A tibble: 106 x 2
##    edition `n()`
##      <int> <int>
##  1       1    14
##  2       2    14
##  3       3    14
##  4       4    14
##  5       5    14
##  6       6    14
##  7       7    14
##  8       8    14
##  9       9    14
## 10      10    14
## # ... with 96 more rows
